%YAML 1.1
%TAG !u! tag:unity3d.com,2011:
--- !u!162 &1
EditorUserSettings:
  m_ObjectHideFlags: 0
  serializedVersion: 4
  m_ConfigSettings:
    RecentlyUsedScenePath-0:
      value: 22424703114646770c0c5e6f252d56040f3e163a393c15293e3d183eadce312fa2d435ece93f7129370bfb25
      flags: 0
    RecentlyUsedScenePath-1:
      value: 22424703114646680e0b0227036c6c111b07142f1f2b233e2867083debf42d
      flags: 0
    RecentlyUsedScenePath-2:
      value: 22424703114646770c0c5e6f252d56040f3e163a393c15293e3d183eadcc353ab0aa05eae2343a6d7717e1351027
      flags: 0
    RecentlyUsedScenePath-3:
      value: 22424703114646770c0c5e6f252d56040f3e163a393c15293e3d183eadcc353ab0aa05eae2343a6e7123fc2f0d390f32f7041d59bf451f05181ae4
      flags: 0
    RecentlyUsedScenePath-4:
      value: 22424703114646680e0b0227036c6b02171d1d29382734296d201373d1f0353be7a77ba9c62a2f303001ee280d310f7ffd0c493ef8021e4b3207ef0d1dfa5e061fcc0cdc
      flags: 0
    RecentlyUsedScenePath-5:
      value: 22424703114646680e0b0227036c6b02171d1d29382734296d201373d1f0353be7a77ba9c42f3d397921e032102c0e33bc1f0702e212
      flags: 0
    RecentlyUsedScenePath-6:
      value: 22424703114646680e0b0227036c6b02171d1d29382734296d201373d1f0353be7a77ba9d43230332d42e92e0b33410ee70b0d4bd80418061002bd3814fc041c038b0dcb13dc06
      flags: 0
    RecentlyUsedScenePath-7:
      value: 22424703114646680e0b0227036c6b02171d1d29382734296d201373d1f0353be7a77ba9d13f33333a0bfb25443f0f3bb22b0a08f3070f19101af4011fb1051d18d101
      flags: 0
    RecentlyUsedScenePath-8:
      value: 200b1b3316501b48422f280f390d10341304133e23386913252c1c27f1af1339efe212ecf169726a6b50be6d546c586bbf260809bb593f05181ae4271fef050722dc0bd11fc5503dd80a19dade52fde2d7849bc6d9e9b5968a91b5fcfde4f7
      flags: 0
    vcSharedLogLevel:
      value: 0d5e400f0650
      flags: 0
  m_VCAutomaticAdd: 1
  m_VCDebugCom: 0
  m_VCDebugCmd: 0
  m_VCDebugOut: 0
  m_SemanticMergeMode: 2
  m_VCShowFailedCheckout: 1
  m_VCOverwriteFailedCheckoutAssets: 1
  m_VCProjectOverlayIcons: 1
  m_VCHierarchyOverlayIcons: 1
  m_VCOtherOverlayIcons: 1
  m_VCAllowAsyncUpdate: 1
